1 10 20
100 200 125
201 210 89
900 1000 174
2799 6935 262
9014 5146 262
3400 4364 238
1885 1633 180
4696 8109 262
627 2749 209
8 1434 182
6312 428 262
10 10 7
2385 7108 262
5442 8499 262
4459 1567 238
1036 7925 262
5696 5882 218
6 9 20
71 69 103
8605 5078 262
4371 8245 262
2631 6692 262
3013 3267 199
1819 4947 238
8956 4698 262
302 1949 182
1824 334 182
306 849 171
73 1093 179
470 1190 182
882 1360 182
806 67 171
1686 13 182
1531 1172 177
1750 766 182
223 42 125
815 580 171
69 464 144
122 1985 182
1942 1004 182
1740 1805 180
274 543 144
206 1155 179
1480 1863 180
1009 381 179
1805 1886 175
877 557 179
1160 1656 182
564 1226 182
387 57 144
491 456 142
1983 404 182
1626 1717 180
1961 118 182
29 640 144
103 1320 182
1192 753 182
642 1548 182
1274 507 182
1236 22 182
1575 375 182
1258 411 182
524 1572 182
2000 1209 180
412 1054 179
1982 594 182
651 108 145
1746 1867 162
1337 953 182
832 995 179
175 738 171
924 465 179
6137 906 238
85 55 116
50 85 116
10 33 112
31 22 112
26 99 119
91 93 93
43 57 113
16 79 116
89 49 116
22 15 21
48 98 119
25 23 24
12 78 116
18 66 113
72 98 119
26 71 113
78 66 116
59 52 113
55 28 113
74 14 116
49 93 116
21 21 8
83 35 116
85 51 116
94 41 116
30 23 112
65 70 28
86 71 116
45 48 105
39 96 116
1 1 1
1 999999 525
9999999 9999999 221
