1 10 20
100 200 125
201 210 89
900 1000 174
27 27 112
96 98 119
870 872 179
837798 837800 525
8400510 8400512 686
63728126 63728128 950
670617278 670617280 987
1 1 1
2 2 2
30 50 110
10000 100000 351
4182 7340 262
7168 9908 260
6595 7008 257
1452 7851 262
2764 4669 238
1688 6860 262
1124 8569 262
5865 9678 262
2985 6317 262
2303 4461 238
3583 3978 238
6199 9757 260
8609 9954 260
3261 9413 262
6960 9072 252
1510 9094 262
4091 4985 215
604 1484 182
5200 9557 262
85 9131 262
2200 8372 262
3228 6017 238
6470 9580 260
1044 9287 262
5614 7563 262
5626 9628 262
53 5572 238
3804 9539 262
4475 5155 210
234 7431 262
329 948 179
4191 6448 262
1467 5929 238
4218 6979 262
317 8441 262
1586 2957 217
6203 8598 257
7266 8717 252
2047 6357 262
311 1660 182
5789 9623 262
3123 9136 262
7938 8455 252
3052 9324 262
2803 8238 262
878 4909 238
7982 8035 190
2603 9312 262
5040 8772 262
2404 4959 238
1002 6302 262
3123 4451 238
5424 5801 236
6034 6561 262
3829 9475 262
4548 5508 210
4312 9678 262
4082 4200 189
9673 9924 242
3627 5244 238
4446 7163 262
864 8145 262
279 4282 238
2578 3228 217
4769 5098 210
2116 3930 238
1057 2820 209
904 3883 238
23 915 179
4774 7088 262
7534 9298 260
753 5548 238
3518 8028 262
4118 8830 262
4054 5703 236
5799 9543 262
403 2286 183
7026 9700 260
330 8301 262
5819 8491 262
4187 6848 262
6494 6798 244
3837 3865 145
4375 8191 262
3660 7223 262
9016 9890 260
2338 8341 262
480 8356 262
1497 3963 238
3752 4555 215
2827 7601 262
3655 3724 238
5897 7078 262
4634 9452 262
7453 9032 252
1069 8802 262
6327 7556 257
5281 8301 262
1297 5377 238
803 1146 179
8281 8519 234
539 5822 238
6918 9171 257
5687 6225 262
3307 7478 262
4012 5437 215
443 3440 217
8290 9050 247
435 1648 182
2290 5245 238
2556 8424 262
623 5955 238
4377 7386 262
1038 8954 262
1318 6863 262
253 8926 262
2767 6463 262
120 2398 183
688 2085 182
3315 9343 262
1070 1926 182
321 3588 217
2720 4237 238
2546 6993 262
6353 9873 260
2445 3123 217
1264 2647 209
1257 5710 238
1490 8551 262
2605 8620 262
6018 7152 262
1823 8070 262
1264 9014 262
4958 8063 262
7431 9707 260
2229 7464 262
1841 6434 262
3124 9496 262
4453 6471 262
5585 7900 262
8044 9495 260
5863 5910 174
2867 7341 262
4538 7394 262
2584 6808 262
4363 8254 262
2104 5877 238
6558 8390 257
6733 6977 257
1620 9746 262
5693 8955 262
9187 9677 260
3444 6786 262
6166 7826 262
2869 4285 238
4849 5873 236
1743 9791 262
4485 5565 210
2561 7462 262
147 4680 238
700 1783 182
412 2017 182
2550 6754 262
4790 6803 262
1158 5431 238
1614 7500 262
667 9003 262
2666 4620 238
5436 6835 262
5024 9346 262
6564 8188 257
3563 9313 262
2466 7469 262
1639 1720 180
1360 7205 262
7201 7884 239
4244 6958 262
2427 6727 262
204 6487 262
1990 8655 262
1838 3709 217
6613 9553 260
6215 7243 257
1047 7091 262
2002 5251 238
1927 9986 262
621 6637 262
4845 8676 262
2155 3523 217
1631 2131 180
7205 8147 252
2227 2414 183
2953 4968 238
211 1311 182
5723 6219 262
2980 8765 262
2092 5246 238
2247 3335 217
2932 4533 238
3807 4467 215
47198 55111 340
25677 97176 351
21291 84992 351
80014 80178 289
26638 71687 340
62710 70278 330
38431 50844 314
25869 31852 308
11602 62411 340
53509 62948 335
29612 71799 340
60396 64597 335
26870 76311 340
22423 62807 340
33542 50593 324
17223 32733 308
10693 51688 324
57613 94137 351
39626 66330 340
11051 92729 351
60004 61878 335
62115 87212 351
10193 26004 282
27349 49372 324
44566 59980 340
75640 93859 351
15862 84211 351
66294 70311 312
20996 36409 324
45628 65024 340
71934 71986 219
20070 38361 324
4851 43115 324
11717 69655 340
84168 98346 333
47848 98846 351
21180 69761 340
36558 38623 306
21054 96122 351
56438 97453 351
40089 58355 340
36379 82389 351
72799 73134 294
7052 21209 279
5498 18423 279
39069 81616 351
11141 28834 308
84411 89543 333
38250 55037 340
90606 97108 333
85881 90602 333
10033 71267 340
58081 64250 335
78091 85797 338
30098 58273 340
50690 79213 351
9775 51566 324
15064 82693 351
29580 82806 351
53015 66168 335
24642 40716 324
84170 93042 333
67427 92138 351
37491 82507 351
37338 47715 314
15354 74400 340
11115 90031 351
39317 40806 306
50613 75999 340
16617 94552 351
15977 55360 340
18095 50777 324
51736 63819 340
36871 78466 351
71188 76135 325
45341 45404 239
24719 83680 351
17248 76355 340
32163 82206 351
61861 68463 330
12598 49847 324
38747 80878 351
27546 77601 351
54772 99412 351
74642 92553 351
34365 48960 324
34239 90901 351
24680 86727 351
33989 50379 324
41979 83983 351
50277 73357 340
86114 86971 302
11752 22886 279
33817 88431 351
