.................
----------------------------------------------------------------------
Ran 17 tests in 0.961s

OK
Name             Stmts   Miss Branch BrPart  Cover   Missing
------------------------------------------------------------
Collatz.py          39      0     12      0   100%
TestCollatz.py      71      0      0      0   100%
------------------------------------------------------------
TOTAL              110      0     12      0   100%
